;***************************************************************************
;********                                                           ********
;********               M A Q U I N A S      M G                    ********
;********                                                           ********
;********                MAQUINA INJETORA MG TPO                    ********
;********  C/CURSO + TEMPERATURA + 16 BOTOES PELO FRONTAL.          ********
;********  FECHA COM REGENERATIVO (S8D) LIGADA E DESLIGA NO CURSO.  ********
;********                                                           ********
;********                                                           ********
;***************************************************************************
;
;  Memoria Basica   : MB002
;  Programa Usuario : P31900.LST
;  Inicio           : 13/JUL/96   (Carlos de Paula)
;  Ultima Revisao   : 04/AGO/96   (Carlos de Paula)
;
;
;  Hardware Utilizado :
;
;  01 - MD 2061 FONTE + CPU
;  01 - MD 2023 16 ENTRADAS /SAIDAS DIGITAIS
;  01 - MD 2034 16 SAIDAS DIGITAIS
;  01 - MD 2046 16 TEMPERATURAS
;  01 - MD 2056  8 ENTRADAS ANAL./8 SAIDAS ANAL.
;  01 - MD 0066  2 AMPLIFICADORES P/ VALVULAS PROPORCIONAIS.
;  01 - MD 0086  3 CONDICIONADOR DE SINAL P/ REGUAS POTENCIOM.
;  01 - BS 2000/5 BASTIDOR DE 5 PASSOS.
;  01 - FR 31900 FRONTAL DE OPERACAO.
;  01 - FR 31901 FRONTAL DE SINAL.
;
;
;
;****************   CONSTANTES DO SISTEMA   ********************
;
     NPLC  = 01
     NED   = 01
     NSD   = 02
     RTIM  = 0300
     NTIM  = 32
;
;
;****************  DEFINICOES DO PROGRAMA  *******************
;
;
     DEF
;
;*** ENTRADAS ********
;
    FC_PORTA = E000 ;FC PORTA
    B_EMERG  = E001 ;BOTAO DE EMERGENCIA.
    FC_FECH. = E002 ;SENSOR FIM DE FECHAMENTO.
    FC_ENC.C = E004 ;SENSOR ENCOSTA CABECOTE.
    FC_EXT.R = E006 ;SENSOR FIM RECUO EXTRATOR.
    FC_RE.MA = E008 ;SENSOR RECUO DO MACHO.
    S.LIG.MA = E009 ;SELETORA LIGA MACHO.
    C_LIB.AU = E00A ;CONTATO LIBERA AUTOMATICO.
    REED_LB1 = E00B ;CONTATO REED LUBRIFICACAO 1.
    REED_LB2 = E00C ;CONTATO REED LUBRIFICACAO 2.
    REED_LB3 = E00D ;CONTATO REED LUBRIFICACAO 3.
    REED_LB4 = E00E ;CONTATO REED LUBRIFICACAO 4.
    REED_LB5 = E00F ;CONTATO REED LUBRIFICACAO 5.
;
;BOTOES MANUAIS.
;
    B_FECHA  = I340 ;BOTAO DE FECHAMENTO.
    B_AV.MA  = I341 ;BOTAO AVANCO DO MACHO.
    B_AV.BI  = I342 ;BOTAO AVANCO DO BICO.
    B_INJEC. = I343 ;BOTAO DE INJECAO.
    B_DOSAG. = I344 ;BOTAO DE DOSAGEM.
    B_DESC.  = I345 ;BOTAO DE DESCOMPRESSAO.
    B_REC.B. = I346 ;BOTAO RECUO DO BICO.
    B_ABRE   = I347 ;BOTAO ABRE MOLDE.
    B_REC.MA = I348 ;BOTAO RECUO DO MACHO.
    B_EXT.PN = I349 ;BOTAO EXTRATOR PNEUMATICO.
    B_EXT.HD = I34A ;BOTAO EXTRATOR HIDRAULICO.
    B_LUBRIF = I34B ;BOTAO DE LUBRIFICACAO.
    B_PRESS. = I34C ;BOTAO DE PRESSAO.
    B_MANUAL = I34D ;BOTAO MANUAL.
    B_S.AUT  = I34E ;BOTAO SEMI-AUTOMATICO.
    B_AUTOM. = I34F ;BOTAO AUTOMATICO.
;
;TEMPERATURAS
;
    S_TMP.BI = I350 ;TEMPERATURA DO BICO.(01)
    S_TMP.Z1 = I351 ;TEMPERATURA ZONA 1.(02)
    S_TMP.Z2 = I352 ;TEMPERATURA ZONA 2.(03)
    S_TMP.Z3 = I353 ;TEMPERATURA ZONA 3.(04)
    S_TMP.Z4 = I354 ;TEMPERATURA ZONA 4.(05)
    S_TMP.Z5 = I355 ;TEMPERATURA ZONA 5.(06)
    S_TMP.7  = I356 ;TEMPERATURA ALTA DO OLEO.(07)
    S_TMP.8  = I357 ;SEGURANCA DA ROSCA.(08)
    S_TMP.9  = I358 ;SAIDA TEMPERATURA 09
    S_TMP.10 = I359 ;SAIDA TEMPERATURA 10.
    S_TEM.11 = I35A ;SAIDA TEMPERATURA 11.
    S_TEM.12 = I35B ;SAIDA TEMPERATURA 12.
    S_TEM.13 = I35C ;SAIDA TEMPERATURA 13.
    S_TEM.14 = I35D ;SAIDA TEMPERATURA 14.
    S_TMP.15 = I35E ;SAIDA TEMPERATURA 15.
    S_TMP.16 = I35F ;SAIDA TEMPERATURA 16.
;
;ALARMES DE TEMPERATURA ALTA +30 GRAUS DO PRESET.
;
    ALARM.1H = I360 ;ALARME TEMPERATURA ALTA DO BICO
    ALARM.2H = I361 ;ALARME TEMPERATURA ALTA ZONA 1.
    ALARM.3H = I362 ;ALARME TEMPERATURA ALTA ZONA 2.
    ALARM.4H = I363 ;ALARME TEMPERATURA ALTA ZONA 3.
    ALARM.5H = I364 ;ALARME TEMPERATURA ALTA ZONA 4.
    ALARM.6H = I365 ;ALARME TEMPERATURA ALTA ZONA 5.
    ALARM.7H = I366 ;ALARME TEMPERATURA ALTA DO OLEO HIDRAULICO.
    ALARM.8H = I367
;
;ALARMES DE TEMPERATURA BAIXA -30 GRAUS DO PRESET.
;
    ALARM.1L = I370 ;ALARME TEMPERATURA BAIXA DO BICO.
    ALARM.2L = I371 ;ALARME TEMPERATURA BAIXA ZONA 1.
    ALARM.3L = I372 ;ALARME TEMPERATURA BAIXA ZONA 2.
    ALARM.4L = I373 ;ALARME TEMPERATURA BAIXA ZONA 3.
    ALARM.5L = I374 ;ALARME TEMPERATURA BAIXA ZONA 4.
    ALARM.6L = I375 ;ALARME TEMPERATURA BAIXA ZONA 5.
    ALARM.7L = I376 ;ALARME TEMPERATURA BAIXA DO OLEO HIDRAULICO.
    ALARM.8L = I377
;
;CURSOS
;REGUA DE INJECAO.
;
    R_INJ.9  = I380 ;CURSO FIM 9 VELOCIDADE DE INJECAO.(01)
    R_INJ.8  = I381 ;CURSO FIM 8 VELOCIDADE DE INJECAO.(02)
    R_INJ.7  = I382 ;CURSO FIM 7 VELOCIDADE DE INJECAO.(03)
    R_INJ.6  = I383 ;CURSO FIM 6 VELOCIDADE DE INJECAO.(04)
    R_INJ.5  = I384 ;CURSO FIM 5 VELOCIDADE DE INJECAO.(05)
    R_INJ.4  = I385 ;CURSO FIM 4 VELOCIDADE DE INJECAO.(06)
    R_INJ.3  = I386 ;CURSO FIM 3 VELOCIDADE DE INJECAO.(07)
    R_INJ.2  = I387 ;CURSO FIM 2 VELOCIDADE DE INJECAO.(08)
    R_INJ.1  = I388 ;CURSO FIM 1 VELOCIDADE DE INJECAO.(09)
    R_RECAL1 = I389 ;CURSO VELOCIDADE DE RECALQUE 1.(10)
    R_RECAL2 = I38A ;CURSO VELOCIDADE DE RECALQUE 2.(11)
    R_RECAL3 = I38B ;CURSO VELOCIDADE DE RECALQUE 3.(12)
    R_C.PRS1 = I38C ;CURSO FIM 1 VELOCIDADE DE CONTRA PRESSAO.(13)
    R_C.PRS2 = I38D ;CURSO FIM 2 VELOCIDADE DE CONTRA PRESSAO.(14)
    R_VIS.CO = I38E ;CURSO VISUALIZACAO DO COLCHAO.(15) (NAO UTILIZADO)
    R_FC.DOS = I38F ;CURSO FIM DE DOSAGEM.(16)
    R_FC.DES = I390 ;CURSO FIM DE DESCOMPRESSAO.(17)
;
;REGUA DE FECHAMENTO.
;
;    R.1V.FEC = I3A0 ;CURSO FIM 1 VELOCIDADE DE FECHAMENTO.(33)
;    R.DES.RE = I3A1 ;CURSO LIGA REGENERATIVO.(34)
;    R.AM.FEC = I3A2 ;CURSO AMORTECIMENTO DE FECHAMENTO.(35)
    R.SEG.MO = I3A3 ;CURSO SEGURANCA DO MOLDE.(36)
    R.AV.MAC = I3A4 ;CURSO INICIO DE AVANCA MACHO.(37)
    R.TRAVAM = I3A5 ;CURSO DE TRAVAMENTO.(38)
;    R.E.PN.M = I3A6 ;CURSO INICIO DE EXTRATOR PNEUMATICO PLACA MOVEL.(39)
;    R.E.PN.F = I3A7 ;CURSO INICIO DE EXTRATOR PNEUMATICO PLACA FIXA.(40)
;    R.F.1VEL = I3A8 ;CURSO FIM 1 VELOCIDADE DE ABERTURA.(41)
;    R.F.2VEL = I3A9 ;CURSO FIM 2 VELOCIDADE DE ABERTURA.(42)
;    R.AM.ABR = I3AA ;CURSO AMORTECIMENTO DE ABERTURA.(43)
    R.I.DESR = I3AB ;CURSO INICIO DE DESROSQUEADOR.(44)
    R.REC.MA = I3AC ;CURSO INICIO DE RECUA MACHO.(45)
;    R.I.EX.H = I3AD ;CURSO INICIO DE EXTRACAO HIDRAULICA.(46)
    R.FC.ABR = I3AE ;CURSO FIM DE ABERTURA.
;
;REGUA DE EXTRACAO
;
    R.F.AV.E = I3C0 ;CURSO FIM DE AVANCO EXTRATOR.(65)
    R.AM.AV  = I3C1 ;CURSO AMORTECIMENTO DE AVANCO EXTRATOR.(66)
    R.RET.RE = I3C2 ;CURSO RETORNO EXTRATOR REPETITIVO.(67)
;
;
;
;
;*** ESTADOS INTERNOS ****
;
    A_S_CICL  =  I01D ;AUX. SUPERVISAO DE CICLOS.
    TR_S_CIC  =  I01E ;TRIGGER SUPERVISAO DE CICLOS.
    C_FECHA   =  I030 ;AUX. INICIO DE FECHAMENTO.
    M_FIM_TR  =  I031 ;MEM. CURSO INICIO TRAVAMENTO ATINGIDO.
    F_DOSAGE  =  I035 ;FIM DE DOSAGEM.
    A_EXTRAT  =  I036 ;AUX. EXTRATOR
    ALARME    =  I037 ;ALARME.
    L_REG_FC  =  I038 ;LIGA REGENERATIVO DE FECHAMENTO.
    A_RE_MAC  =  I039 ;AUX. RECUO DO MACHO.
    AL_TRAVA  =  I03A ;ALARME TRAVAMENTO.
    AL_LUBRI  =  I03B ;ALARME LUBRIFICACAO
    M_L_DESR  =  I03C ;MEMORIA LIGA DESROSQUEADOR.
    A_AV_MAC  =  I040 ;AUX. AVANCO DO MACHO.
    MAN_AUTO  =  I043 ;AUX. SEMI-AUT + AUTOMATICO.
    A_FECHAM  =  I045 ;AUX. FECHAMENTO.
    V_AB_RAP  =  I049 ;VEL.  ABERTURA 2
    TRG_LUB4  =  I04D ;TRIGGER LUBRIFICACAO 4.
    M_EXT_AV  =  I052 ;MEM. EXTRATOR AVANCADO.
    A_PR_GER  =  I054 ;AUX. PRESSAO GERAL.
    ST_CRONO  =  I055 ;INICIO CRONOMETRO DE CICLO.
    A_CRONO   =  I056 ;AUX. CRONOMETRO DE CICLO.
    BL_CRONO  =  I057 ;BLOQUEIO CRONOMETRO DE CICLO.
    RS_CRONO  =  I058 ;RESET CRONOMETRO DE CICLO.
    AL_LUBR4  =  I059 ;ALARME LUBRIF.4.
    AL_EX_RE  =  I05D ;ALARME FIM DE RECUO EXTRACAO.
    AL_PRT_A  =  I05E ;ALARME PORTA ABERTA.
    P_GER_TR  =  I0A3 ;PRESSAO GERAL NO FECHAMENTO.
    LED_SG_M  =  I0A8 ;LED TEMPO SEG. MOLDE.
    TRG_LUB1  =  I0AC ;TRIGGER LUBRIFICACAO 1.
    LED_T_TR  =  I0B0 ;LED TEMPO DE TRAVAMENTO.
    AL_LUBR1  =  I0B1 ;ALARME LUBRIF.1.
    TRG_LUB2  =  I0B2 ;TRIGGER LUBRIFICACAO 2.
    AL_LUBR2  =  I0C2 ;ALARME LUBRIF.2.
    TRG_LUB3  =  I0C3 ;TRIGGER LUBRIFICACAO 3.
    AL_LUBR3  =  I0CA ;ALARME LUBRIF.3.
    FIM_SG_M  =  I0D1 ;FIM TEMPO SEG. MOLDE.
    FIM_T_TR  =  I0D2 ;FIM TEMPO DE TRAVAMENTO.
    AL_BICO   =  I0D8 ;AUX. ALARME BICO EXTRATOR/MACHO
    F_T_RESF  =  I0D9 ;FIM TEMPO DE RESFRIAMENTO.
    R_AB_RAP  =  I0DA ;FIM RETARDO ABERTURA RAPIDA.
    F_T_EX_A  =  I0DB ;FIM TEMPO EXTRATOR AVANCADO.
    R_EXT_RE  =  I0DC ;FIM RETORNO EXTRATOR REPETITIVO
    F_CNT_EX  =  I0DD ;FIM CONTADOR DE EXTRACOES.
    F_T_DESR  =  I0DF ;FIM TEMPO DESROSQUEADOR
    AL_ENC_C  =  I0E1 ;ALARME FIM DE ENCOSTA CABECOTE.
    T_SP_LUB  =  I0E4 ;APOS TEMPO SUPERVISAO DE LUBRIFICACAO.
    MANUAL    =  I0E7 ;LIGA CICLO MANUAL.
    SEMI_AUT  =  I0E8 ;LIGA SEMI-AUTOMATICO.
    AUTOMAT   =  I0E9 ;LIGA CICLO AUTOMATICO.
    R_PV_EXT  =  I0EC ;RETARDO PRES./VEL.EXTRACAO.
    TR_CNT_C  =  I0EF ;TRIGGER CONTADOR DE CICLO.
    AL_LUBR5  =  I0F3 ;ALARME LUBRIF.5.
    RS_TOT_C  =  I0F8 ;RESET TOTALIZADOR DE CICLOS.
    INC_TOT   =  I0F9 ;INCREMENTA TOTALIZADOR DE CICLOS.
    BIP_TEC   =  I0FB ;BEEP DO TECLADO
    AUX       =  I0FF ;RASCUNHO DO EDITOR DE DIAGRAMAS
;
    A.E.PNPM  =  I100  ;AUX. EXTRATOR PNEUMATICO PLACA MOVEL.
    A.E.PNPF  =  I101  ;AUX. EXTRATOR PNEUMATICO PLACA FIXA.
    A.DES.CA  =  I102  ;AUX. DESENCOSTA CABECOTE.
    D.DES.CA  =  I103  ;DURANTE TEMPO DE DESENCOSTA CABECOTE.
    A.AM.EXT  =  I104  ;AMORT. EXTRACAO.
    A.1_2aAB  =  I105  ;FIM 1a ABERTURA/INICIO 2a ABERTURA.
    A.2_3aAB  =  I106  ;FIM 2a ABERTURA/INICIO 3a ABERTURA.
    A.AM.AB   =  I107  ;AUX. AMORT. ABERTURA.
    TRG.SUP   =  I108  ;TRIGGER SUPERV. DE CICLOS.
    A.1_2aFC  =  I109  ;FIM 1a VEL. FECHAMENTO/INICIO 2a VEL. FECHAMENTO.
    A.SUP.CI  =  I10A  ;AUX. SUPERV. DE CICLOS.
    A.T.S.CI  =  I10B  ;FIM TEMPO SUPERV. DE CICLOS.
    A.TR.LUB  =  I10C  ;TRIGGER LUBRIFICACAO 5.
    AUX.EXTR  =  I10D  ;AUX. EXTRACAO.
    M.AM.E.C  =  I10E  ;MEM. AMORT. ENCOSTA CABECOTE.
    M.AM.D.C  =  I10F  ;MEM. AMORT. DESENCOSTA CABECOTE.
;
    A.1a.V.I  =  I111  ;MEM. FIM 1a VELOC. DE INJECAO.
    A.2a.V.I  =  I112  ;MEM. FIM 2a VELOC. DE INJECAO.
    A.3a.V.I  =  I113  ;MEM. FIM 3a VELOC. DE INJECAO.
    A.4a.V.I  =  I114  ;MEM. FIM 4a VELOC. DE INJECAO.
    A.5a.V.I  =  I115  ;MEM. FIM 5a VELOC. DE INJECAO.
    A.6a.V.I  =  I116  ;MEM. FIM 6a VELOC. DE INJECAO.
    A.7a.V.I  =  I117  ;MEM. FIM 7a VELOC. DE INJECAO.
    A.8a.V.I  =  I118  ;MEM. FIM 8a VELOC. DE INJECAO.
    A.9a.V.I  =  I119  ;MEM. FIM 9a VELOC. DE INJECAO.
    A.LUBRIF  =  I120  ;AUXILIAR LUBRIFICACAO.
    A.AB.MOL  =  I121  ;AUXILIAR ABRE MOLDE.
    FLIFLOPA  =  I122  ;AUXILIAR FLIP-FLOP.
    FLIFLOPB  =  I123  ;FLIP-FLOP
    FLIFLOPC  =  I124  ;AUXILIAR FLIP-FLOP.
    A.SONORA  =  I125  ;AUXILIAR ALARME SONORO.
    A.SONORB  =  I126  ;AUX. ALARME SONORO.
    NAO_USA0  =  I127  ;AUX. EXTR.PNEUM.PLACA FIXA.
    NAO_USA1  =  I128  ;AUX. EXTR.PNEUM.PLACA MOVEL.
    A.DESROS  =  I129  ;AUX. DESROSQUEADOR.
    A.JUMPER  =  I130  ;AUXILIAR JUMPER
    ;
    SL.REC.C  =  I200  ;SELETORA RECALQUE P/ CURSO.
    SL.REC.T  =  I201  ;SELETORA RECALQUE P/ TEMPO.
    SL.EXT.T  =  I202  ;SELETORA EXTRATOR P/ TEMPO.
    RESERV01  =  I203  ;RESERVA.
    S.E.PNPM  =  I204  ;SELETORA EXTRATOR PNEUM. PLACA MOVEL.
    S.E.PNPF  =  I205  ;SELETORA EXTRATOR PNEUM. PLACA FIXA.
    S.E.PPMF  =  I206  ;SELETORA EXTRATOR PNEUM. PLACA MOVEL E FIXA.
    S.DES.CA  =  I207  ;SELETORA DESENCOSTA CABECOTE.
    S.DOSAG   =  I208  ;SELETORA DOSAGEM.
    S.DESCOM  =  I209  ;SELETORA DESCOMPRESSAO.
    S.PRE.DS  =  I20A  ;SELETORA PRE-DOSAGEM.
    S.PRE.CI  =  I20B  ;SELETORA PRE-DETERMINADOR DE CICLOS.
    S.AQUEC   =  I20C  ;SELETORA AQUECIMENTO.
    S.DSR.HD  =  I20D  ;SELETORA DESROSQUEADOR HIDRAULICO.
    S.DESROS  =  I20E  ;SELETORA DESROSQUEADOR.
    A.10a.VI  =  I20F  ;SELETORA 10 VELOCIDADE DE INJECAO.
                  ;
    A.P.E.CA  =  I220  ;PRESSAO ENCOSTA CABECOTE.
    A.P.INJ   =  I221  ;PRESSAO INJECAO.
    A.P.RC.1  =  I222  ;PRESSAO RECALQUE 1.
    A.P.RC.2  =  I223  ;PRESSAO RECALQUE 2.
    A.P.RC.3  =  I224  ;PRESSAO RECALQUE 3.
    C.PR1.DS  =  I225  ;1a CONTRA PRESSAO DOSAGEM.
    C.PR2.DS  =  I226  ;2a CONTRA PRESSAO DOSAGEM.
    C.PR3.DS  =  I227  ;3a CONTRA PRESSAO DOSAGEM.
    PR.DESCO  =  I228  ;PRESSAO DESCOMPRESSAO
    A.P.D.CA  =  I229  ;PRESSAO DESENCOSTA CABECOTE.
    A.P.A.FC  =  I22A  ;PRESSAO AMORT. FECHAMENTO.
    A.P.SG.M  =  I22B  ;PRESSAO SEGURANCA DO MOLDE.
    A.P.A.MA  =  I22C  ;PRESSAO AVANCO MACHO.
    A.P.GETR  =  I22D  ;PRESSAO GERAL/TRAVAMENTO.
    A.P.A.AB  =  I22E  ;PRESSAO AMORT. ABERTURA.
    A.P.DESR  =  I22F  ;PRESSAO DESROSQUEADOR.
    A.P.R.MA  =  I230  ;PRESSAO RECUO MACHO.
    A.P.A.EH  =  I231  ;PRESSAO AVANCO EXT. HIDRAUL.
    A.P.R.EH  =  I232  ;PRESSAO RECUO EXT. HIDRAUL.
    A.P.M.CA  =  I233  ;PRESSAO ENCOSTA /DESENC. CABECOTE
    ;
    A.P.GERA  =  I23F  ;PRESSAO GERAL
                  ;
    A.V.E.CA  =  I240  ;VELOCIDADE ENCOSTA CABECOTE.
    A.V.AM.C  =  I241  ;VELOCIDADE AMORT. ENCOSTA CABECOTE.
    AV.1a.I  =  I242  ;VELOCIDADE 1a INJECAO.
    AV.2a.I  =  I243  ;VELOCIDADE 2a INJECAO.
    AV.3a.I  =  I244  ;VELOCIDADE 3a INJECAO.
    AV.4a.I  =  I245  ;VELOCIDADE 4a INJECAO.
    AV.5a.I  =  I246  ;VELOCIDADE 5a INJECAO.
    AV.6a.I  =  I247  ;VELOCIDADE 6a INJECAO.
    AV.7a.I  =  I248  ;VELOCIDADE 7a INJECAO.
    AV.8a.I  =  I249  ;VELOCIDADE 8a INJECAO.
    AV.9a.I  =  I24A  ;VELOCIDADE 9a INJECAO.
    AV.10a.I  =  I24B  ;VELOCIDADE 10a INJECAO.
    A.V.1aDS  =  I24C  ;VELOCIDADE 1a DOSAGEM.
    A.V.2aDS  =  I24D  ;VELOCIDADE 2a DOSAGEM.
    A.V.3aDS  =  I24E  ;VELOCIDADE 3a DOSAGEM.
    A.V.DESC  =  I24F  ;VELOCIDADE DESCOMPRESSAO.
    A.V.D.CA  =  I250  ;VELOCIDADE DESENCOSTA CABECOTE.
    A.V.M.PL  =  I251  ;VELOCIDADE ENCOSTA/ DESENCOSTA PLACA.
    A.V.1a.F  =  I252  ;VELOCIDADE 1a DE FECHAMENTO.
    A.V.2a.F  =  I253  ;VELOCIDADE 2a DE FECHAMENTO.
    A.V.AM.F  =  I254  ;VELOCIDADE AMORT. FECHAMENTO.
    A.V.S.MO  =  I255  ;VELOCIDADE SEG. DO MOLDE.
    A.V.A.MA  =  I256  ;VELOCIDADE AVANCO MACHO.
    A.V.1a.A  =  I257  ;VELOCIDADE 1a DE ABERTURA.
    A.V.2a.A  =  I258  ;VELOCIDADE 2a DE ABERTURA.
    A.V.3a.A  =  I259  ;VELOCIDADE 3a DE ABERTURA.
    A.V.AM.A  =  I25A  ;VELOCIDADE AMORT. DE ABERTURA.
    A.V.DESR  =  I25B  ;VELOCIDADE DESROSQUEADOR.
    A.V.R.MA  =  I25C  ;VELOCIDADE RECUO MACHO.
    A.VAV.EH  =  I25D  ;VELOCIDADE AVANCO EXTRATOR HIDRAULICO.
    A.VRE.EH  =  I25E  ;VELOCIDADE RECUO EXTRATOR HIDRAULICO.
    A.VAM.EH  =  I25F  ;VELOCIDADE AMORT.AV. EXTRATOR.
;
;******* AUXILIARES DO SISTEMA *************
;
       ON1VARR  = I3F0
       ONALL    = I3F1 ;Sempre Ligado
       OFFALL   = I3F2 ;Sempre Desligado
       TECFUNC  = I3F3 ;Pressionada Tecla de Funcao
       FIMENTR  = I3F4 ;Fim de Entrada de Dados
       HAB_TEC  = I3F5 ;Habilita Entrada de Dados
;
= ;
;
;******REGISTROS********
;
    PR_EXTR  =  R02B   ;PRESET DE EXTRACOES = CONTADOR DE EXTRACOES + 020H
    RFUNC    =  R3FF   ;REGISTRO APONTADOR DE TELAS DE FUNCAO
;
        ENDF
;
;
;
;
;* INICIO DO PROGRAMA DE USUARIO *
;
;>>>> Inicializacao <<<<
;
;**** #    1 ----> & 0000h
;
     LD    ON1VARR
     CALC  Inicializacao
;
;
;>>>> Verificacao da Tecla de Funcao Digitada <<<<
;
;**** #    2 ----> & 0006h
;
     LD    TECFUNC
     CALC  Verif_Telas
;
;
;>>>> Habilita entrada de dados via teclado
;
;**** #    3 ----> & 000Ch
     LD    ONALL
     OUT   HAB_TEC
;
;LINHA 1   : I0E7 LIGA CICLO MANUAL.
;**** #    4 ----> & 0010h
       LDN     B_S.AUT ; BOTAO SEMI- AUTOMATICO.
       ANDN    B_AUTOM. ; BOTAO DE AUTOMATICO.
       ANDN    I0E8
       ANDN    I0E9
       OUT     I0E7 ; LIGA CICLO MANUAL.
;
;LINHA 2   : I0E8 LIGA SEMI-AUTOMATICO.
;**** #    5 ----> & 001Ah
       LD      B_S.AUT ; BOTAO SEMI- AUTOMATICO.
       OR      I0E8
       ANDN    B_MANUAL ; BOTAO DE MANUAL.
       ANDN    B_AUTOM. ; BOTAO DE AUTOMATICO.
       ANDN    I0E7
       ANDN    I0E9
       AND     C_LIB.AU ; CONTATO LIBERA AUT.
       OUT     I0E8 ; LIGA CICLO SEMI-AUTOMATICO.
;
;LINHA 3   : I0E9 LIGA CICLO AUTOMATICO.
;**** #    6 ----> & 002Ah
       LD      B_AUTOM. ; BOTAO DE AUTOMATICO.
       OR      I0E9
       ANDN    B_MANUAL ; BOTAO DE MANUAL.
       ANDN    B_S.AUT ; BOTAO SEMI- AUTOMATICO.
       ANDN    I0E7
       ANDN    I0E8
       AND     C_LIB.AU ; CONTATO LIBERA AUT.
       OUT     I0E9 ; LIGA CICLO AUTOMATICO.
;
;LINHA 4   : I043 AUX. SEMI-AUT + AUTOMATICO.
;**** #    7 ----> & 003Ah
       LD      I0E8
       OR      I0E9
       OUT     I043 ; AUX. SEMI-AUTOMATICO + AUTOMATICO.
;
;LINHA 5   : I03B ALARME TRAVAMENTO.
;**** #    8 ----> & 0040h
       LD      I0F0
       LD      S081 ; SOL. FECHA MOLDE.
       AND     I043
       ANDN    R.TRAVAM
       TIMR    #19 UP 0.1
       OUT     I0FF
       OUT     AL_LUBRI ; ALARME TRAVAMENTO.
;
;LINHA 6   : I129 AUX. DESROSQUEADOR.
;**** #    9 ----> & 004Eh
       LD      S080 ; SOL ABERTURA.
       OR      A.DESROS
       LD      I0E7 ; MANUAL
       OR      I043 ; S-AUT.+AUT.
       ANDN    R.FC.ABR ; F.C. ABERTURA.
       ANDP
       OUT     A.DESROS
;
;LINHA 6   : I03C MEMORIA LIGA DESROSQUEADOR.
;**** #   10 ----> & 005Ch
       LD      R.I.DESR
       OR      M_L_DESR
       LD      S.DSR.HD
       OR      S.DESROS
       ANDN    C_FECHA
       ANDN    FC_FECH.
       AND     A.DESROS  ; AUX.DESROSQUEADOR.
       ANDN    S.LIG.MA
       ANDP
       OUT     M_L_DESR ; MEMORIA LIGA DESROSQUEADOR.
;
;LINHA 7   :(15) TEMPO DESROSQUEADOR.
;**** #   11 ----> & 0070h
       LD      I0F0
       LD      M_L_DESR
       TIMR    #0E UP 0.1   ; TEMPO DESROSQUEADOR.
       RLD
       OUT     I095
       AND     S.DESROS
       OUT     A.P.DESR ; PRESSAO DESROSQ. HIDRAULICO.
       OUT     I0DF
;**** #   12 ----> & 0080h
       LD      A.P.DESR
       OUT     A.V.DESR ; VELOCIDADE DESROSQ. HIDRAUL.
;
;LINHA 8   : I055 INICIO CRONOMETRO DE CICLO.
;**** #   13 ----> & 0084h
       LD      S081 ; SOL. FECHAMENTO DO MOLDE.
       OR      ST_CRONO
       LDN     S081 ; SOL. FECHAMENTO DO MOLDE.
       ORN     RS_CRONO
       ANDN    ALARME
       AND     I043
       ANDP
       RLD
       OUT     ST_CRONO ; INICIO CRONOMETRO DE CICLO.
       LD      A.AB.MOL ; SOL.ABRE MOLDE.
       OR      A_CRONO
       ANDP
       RLD
       OUT     A_CRONO ;AUX. CRONOMETRO DE CICLO.
       LD      S081 ; SOL. FECHAMENTO DO MOLDE.
       OR      BL_CRONO
       ANDP
       RLD
       OUT     BL_CRONO ; BLOQUEIO CRONOMETRO DE CICLO.
       LD      A.AB.MOL ; SOL. ABRE MOLDE.
       OR      RS_CRONO
       ANDP
       OUT     RS_CRONO ; RESET CRONOMETRO DE CICLO.
;
;LINHA 9   :(16) TEMPO CRONOMETRO DE CICLO.
;**** #   14 ----> & 00B2h
       LD      BL_CRONO
       LD      ST_CRONO
       TIMR    #0F UP 0.1  ; CRONOMETRO DE CICLO
       OUT     I0FF
       OUT     I0FF
;
;LINHA 10  : I01D AUX. SUPERVISAO DE CICLOS.
;**** #   15 ----> & 00BCh
       LD      C_FECHA
       AND     S084 ; SOL. DE INJECAO.
       OR      A.SUP.CI
       AND     I043
       OUT     A.SUP.CI ; AUX. SUPERV. DE CICLOS.
;
;LINHA 11  :I01E TRIGGER SUPERVISAO DE CICLOS.
;**** #   16 ----> & 00C6h
       LD      S081 ; SOL. FECHAMENTO DO MOLDE.
       MONU    TRG.SUP ; TRIGGER SUPERVISAO DE CICLO.
;
;LINHA 12  : (18) TEMPO SUPERVISAO DE CICLOS.
;**** #   17 ----> & 00CAh
       LD      I0F0
       LD      I043
       AND     A.SUP.CI
       ANDN    TRG.SUP
       TIMR    #11 UP 0.1 ; TEMPO SUPERVISAO DE CICLOS
       OUT     I0FF
       OUT     A.T.S.CI ; FIM TEMPO SUPERVISAO DE CICLOS.
;
;LINHA 13  : S08E SOL. RECUO DO EXTRATOR.
;**** #   18 ----> & 00D8h
       LD      I0E7
       ANDN    B_EXT.HD ; BOTAO EXTRATOR HIDRAULICO.
       OR      I043
       ANDN    FC_EXT.R
       ANDN    AUX.EXTR ; AUX. EXTRACAO.
       OUT     S08E ; SOL. RECUO EXTRATOR.
;**** #   19 ----> & 00E4h
       LD      S08E ; SOL. RECUO DO EXTRATOR.
       OUT     A.P.R.EH ; PRESSAO RECUO EXTRATOR.
;**** #   20 ----> & 00E8h
       LD      S08E ; SOL. RECUO DO EXTRATOR.
       OUT     A.VRE.EH ; VELOCIDADE RECUO EXTRATOR.
;
;LINHA 14  : TEMPO BI-ESTAVEL DESLIGADO.
;**** #   21 ----> & 00ECh
       LD      I0F0
       LDN     I0EF
       TIMR    #1D UP 0.1 ; TEMPO BI-ESTAVEL DESLIGADO.
       OUT     I0FF
       OUT     I0ED
;
;LINHA 15  : TEMPO BI-ESTAVEL LIGADO.
;**** #   22 ----> & 00F6h
       LD      I0F0
       LD      I0ED
       TIMR    #1F UP 0.1 ; TEMPO BI-ESTAVEL LIGADO.
       OUT     I0FF
       OUT     I0EF ; TRIGGER CONTADOR DE CICLO.
;
;LINHA 16  : I039 AUX. RECUO DO MACHO.
;**** #   23 ----> & 0100h
       LD      R.REC.MA
       OR      A_RE_MAC
       ANDN    I040
       ANDN    FC_RE.MA
       AND     S.LIG.MA
       OUT     A_RE_MAC ; RECUO DO MACHO.
;
;LINHA 17  : C_FECHA AUX. INICIO DE FECHAMENTO.
;**** #   24 ----> & 010Ch
       LD      I0D0
       ORN     FC_PORTA
       OR      C_FECHA
       AND     I043
       ANDN    A.AB.MOL ; SOL. ABRE MOLDE.
       ANDN    ALARME
       ANDN    I0E1
       ANDN    A.DESROS ; AUX. DESROSQUEADOR.
       OUT     C_FECHA ; INICIO FECHAMENTO.
;
;LINHA 18  : I045 AUX. FECHAMENTO.
;**** #   25 ----> & 011Eh
       LD      C_FECHA
       OR      A_FECHAM
       ANDN    F_T_RESF
       AND     I043
       ANDN    A.AB.MOL ; SOL. ABRE MOLDE.
       OUT     A_FECHAM ; AUX. FECHAMENTO.
;
;LINHA 19  : I040 AUX. AVANCO DO MACHO.
;**** #   26 ----> & 012Ah
       LD      B_FECHA ; BOTAO DE FECHAMENTO.
       OR      B_AV.MA ; BOTAO DE AVANCO DO MACHO.
       AND     I0E7
       LD      A_FECHAM
       AND     FC_PORTA
       ORP
       ANDN    R.AV.MAC
       LD      I040
       ANDN    A.AB.MOL ; SOL. ABRE MOLDE.
       ORP
       ANDN    A_RE_MAC
       AND     S.LIG.MA
       OUT     I040 ; AUX. AVANCO DO MACHO.
;
;LINHA 20  : S08B SOL. AVANCO DO MACHO.
;**** #   27 ----> & 0144h
       LD      I0E7
       AND     B_AV.MA ; BOTAO DE AVANCO DO MACHO.
       LD      I043
       AND     S.LIG.MA
       ORP
       ANDN    E007
       AND     I040
       ANDN    A_EXTRAT
       AND     FC_EXT.R
       OUT     S08B ; SOL. AVANCO DO MACHO.
;**** #   28 ----> & 0158h
       LD      S08B ; SOL. AV. DO MACHO.
       OUT     A.P.A.MA ; PRESSAO AVANCO MACHO.
;**** #   29 ----> & 015Ch
       LD      S08B ; SOL. AV. DO MACHO.
       OUT     A.V.A.MA ; VELOCIDADE AVANCO MACHO.
;
;LINHA 21  : S08C SOL.RECUO DO MACHO.
;**** #   30 ----> & 0160h
       LD      I0E7
       AND     B_REC.MA ; BOTAO DE RECUO DO MACHO.
       LD      I043
       AND     S.LIG.MA
       ORP
       ANDN    FC_RE.MA
       AND     A_RE_MAC
       OUT     S08C ; SOL. RECUO MACHO.
;**** #   31 ----> & 0170h
       LD      S08C ; SOL. RECUO DO MACHO.
       OUT     A.P.R.MA ; PRESSAO RECUO MACHO
;**** #   32 ----> & 0174h
       LD      S08C ; SOL. RECUO DO MACHO.
       OUT     A.V.R.MA ; VELOCIDADE RECUO MACHO.
;
;LINHA 22  : ALARME ALARME.
;**** #   33 ----> & 0178h
       LD      I05F
       OR      ALARME
       OR      FIM_SG_M
       OR      B_EMERG
       LDN     R.FC.ABR ; CURSO FIM DE ABERTURA.
       AND     I043
       ANDN    I047
       ORP
       AND     I043
       RLD
       OUT     ALARME ; AUX. ALARME.
       ANDN    I0ED
       OUT     A.SONORA ; SINALIZACAO ALARME.
;**** #   34 ----> & 0192h
       LD      AL_LUBR1 ; ALARME LUBRIF.1.
       OR      AL_LUBR2 ; ALARME LUBRIF.2.
       OR      AL_LUBR3 ; ALARME LUBRIF.3.
       OR      AL_LUBR4 ; ALARME LUBRIF.4.
       OR      I0F3 ; ALARME LUBRIF.5.
       OR      A.T.S.CI ; ALARME PRE DETERMINADOR DE CICLOS.
       OR      I0E1 ; ALARME FIM DE ENCOSTA CABECOTE.
       OR      AL_EX_RE ; ALARME FIM DE RECUO EXTRACAO.
       OR      AL_TRAVA ; ALARME TRAVAMENTO.
       OR      AL_LUBRI ; ALARME DE LUBRIFICACAO.
       OR      A.SONORA ; AUX. ALARME.
       OUT     A.SONORB ; AUX. ALARME.
;**** #   35 ----> & 01AAh
       LD      A.SONORB ; AUX. ALARME.
       OUT     S08A ; SINALIZACAO DE ALARME.
;
;LINHA 23  : I0F8 RESET TOTALIZADOR DE CICLOS.
;**** #   36 ----> & 01AEh
       LD      I0E7
       AND     B_EMERG
       AND     B_ABRE ; BOTAO ABRE MOLDE.
       OUT     I0F8 ; RESET TOTALIZADOR DE CICLOS.
;**** #   37 ----> & 01B6h
;LINHA 24  : I0F9 INCREMENTA TOTALIZADOR DE CICLOS.
;	
       LD      F_T_RESF
       OUT     I0F9 ; INCREMENTA TOTALIZADOR DE CICLOS.
;
;LINHA 25  : I054 AUX. PRESSAO GERAL.
;**** #   38 ----> & 01BAh
       LD      B_PRESS. ; BOTAO DE PRESSAO.
       AND     I0E7
       ANDN    B_ABRE ; BOTAO ABRE MOLDE.
       ANDN    B_FECHA ; BOTAO DE FECHAMENTO.
       ANDN    B_EXT.HD ; BOTAO EXTRATOR HIDRAULICO.
       ANDN    B_AV.BI ; BOTAO AVANCO DO BICO.
       ANDN    B_REC.B. ; BOTAO RECUO DO BICO.
       ANDN    B_INJEC. ; BOTAO DE INJECAO.
       ANDN    B_DOSAG. ; BOTAO DE DOSAGEM.
       ANDN    B_DESC. ; BOTAO DE DESCOMPRESSAO.
       ANDN    B_AV.MA ; BOTAO DE AVANCO DO MACHO.
       OR      I0BC
       OR      P_GER_TR
       OUT     A_PR_GER ; AUX. PRESSAO GERAL.
;**** #   39 ----> & 01D6h
       LD      A_PR_GER ; AUX. PRESSAO GERAL.
       OUT     A.P.GERA ;
;
;LINHA 26  : I233 PRESSAO ENC./DESENC. PLACA.
;**** #   40 ----> & 01DAh
       LD      S09E ; SOL. ENCOSTA PLACA.
       OR      S09F ; SOL. DESENCOSTA PLACA.
       OUT     A.P.M.CA ; PRESSAO ENC./DESENC. PLACA.
;
;LINHA 27  : S090 RELE TEMPERATURA DO BICO.
;**** #   41 ----> & 01E0h
       LD      S_TMP.BI
       AND     S.AQUEC
       OUT     I090 ; RELE TEMPERATURA DO BICO.
;**** #   42 ----> & 01E6h
       LD      S_TMP.Z1
       AND     S.AQUEC
       OUT     I091 ; RELE TEMPERATURA ZONA 1.
;**** #   43 ----> & 01ECh
       LD      S_TMP.Z2
       AND     S.AQUEC
       OUT     I092 ; RELE TEMPERATURA ZONA 2.
;**** #   44 ----> & 01F2h
       LD      S_TMP.Z3
       AND     S.AQUEC
       OUT     I093 ; RELE TEMPERATURA ZONA 3.
;**** #   45 ----> & 01F8h
       LD      S_TMP.Z4
       AND     S.AQUEC
       OUT     I094 ; RELE TEMPERATURA ZONA 4.
;**** #   46 ----> & 01FEh
       LD      I0F0
       LD      I0FB
       TIMR    #17 UP 0.1 ; TEMPO BIP DO TECLADO.
       OUT     I0FF
       OR      A.SONORB ; SINALIZACAO DE ALARME SONORO.
       LD      A.T.S.CI
       OR      I0E1
       ANDN    I0ED
       ORP
       OUT     S088 ; ALARME SONORO.
;**** #   47 ----> & 0212h
       LD      I0E7
       AND     B_FECHA ; BOTAO DE FECHAMENTO.
       OR      C_FECHA
       LDN     I040
       OR      E007
       ORN     S.LIG.MA
       ANDP
       ANDN    I095
       ANDN    FIM_T_TR
       AND     FC_PORTA
       AND     FC_EXT.R
       ANDN    A_EXTRAT
       ANDN    S087 ; SOL. AVANCO EXTRATOR.
       ANDN    A_RE_MAC
       OUT     S081 ; SOL. FECHAMENTO DO MOLDE. ; SOL. FECHA MOLDE.
;**** #   48 ----> & 0230h
       LD      I0E7
       AND     B_PRESS. ; BOTAO DE PRESSAO.
       OR      I043
       LDN     R.TRAVAM
       OR      M_FIM_TR
       AND     S081 ; SOL. FECHAMENTO DO MOLDE.
       ANDP
       RLD
       OUT     M_FIM_TR ; MEM. CURSO INICIO TRAVAMENTO ATINGIDO.
       ANDN    FC_FECH. ; SENSOR MOLDE FECHADO.
       OUT     A.P.GETR ; PRESSAO DE TRAVAMENTO.
;**** #   49 ----> & 0246h
       LD      I0E7
       AND     B_PRESS. ; BOTAO DE PRESSAO.
       OR      I043
       LDN     R.SEG.MO
       OR      A.P.SG.M
       AND     S081 ; SOL. FECHAMENTO DO MOLDE.
       ANDP
       ANDN    M_FIM_TR
       OUT     A.P.SG.M ; PRESSAO SEG. DO MOLDE.
;**** #   50 ----> & 0258h
       LD      A.P.SG.M
       OUT     A.V.S.MO ; VELOCIDADE SEG. DO MOLDE.
;**** #   51 ----> & 025Ch
       LD      I0E7
       AND     B_PRESS. ; BOTAO DE PRESSAO.
       OR      I043
       AND     S081 ; SOL. FECHAMENTO DO MOLDE.
       ANDN    M_FIM_TR
       ANDN    R.AM.FEC
       AND     R.SEG.MO
       OUT     A.P.A.FC ; PRESSAO AMORT. FECHAMENTO.
;**** #   52 ----> & 026Ch
       LD      A.P.A.FC
       OUT     A.V.AM.F ; VELOCIDADE AMORT. FECHAMENTO.
;**** #   53 ----> & 0270h
       LD      I0E7 ; CICLO MANUAL
       AND     B_PRESS. ; BOTAO PRESSAO.
       OR      I043 ; AUX. SEMI-AUT + AUTOMATICO.
       LDN     R.1V.FEC ; CURSO FIM 1a VEL. FECHAMENTO.
       OR      A.1_2aFC ; MEM. FIM 1a VEL. FECHAMENTO.
       ANDP
       AND     S081 ; SOL. FECHAMENTO DO MOLDE. ;
       ANDN    M_FIM_TR
       OUT     A.1_2aFC ; MEM. FIM 1a VEL. FECHAMENTO.
;**** #   54 ----> & 0282h
       LD      I043
       OR      B_PRESS. ; BOTAO DE PRESSAO.
       AND     S081 ; SOL. FECHAMENTO DO MOLDE.
       ANDN    FC_FECH.
       ANDN    A.P.SG.M
       ANDN    A.P.A.FC
       AND     A.1_2aFC
       OUT     A.V.2a.F ; 2a VELOCIDADE DE FECHAMENTO.
;**** #   55 ----> & 0292h
       LD      I043
       OR      B_PRESS. ; BOTAO DE PRESSAO.
       AND     S081 ; SOL. FECHAMENTO DO MOLDE.
       ANDN    FC_FECH.
       ANDN    A.P.SG.M
       RLD
       ANDN    M_FIM_TR
       OUT     P_GER_TR ; PRESSAO GERAL NO FECHAMENTO.
       ANDN    A.P.A.FC
       ANDN    A.1_2aFC
       OUT     A.V.1a.F ; 1a VELOCIDADE DE FECHAMENTO.
;**** #   56 ----> & 02A8h
       LD      I0F0
       LD      A.P.SG.M
       OR      FIM_SG_M
       AND     I043
       TIMR    #01 UP 0.1 ; TEMPO DE SEG. MOLDE.
       OUT     LED_SG_M ; LED TEMPO SEG. MOLDE.
       OUT     FIM_SG_M ; FIM TEMPO SEG. MOLDE.
;**** #   57 ----> & 02B6h
       LD      I0F0
       LD      M_FIM_TR
       AND     FC_FECH.
       OR      FIM_T_TR
       AND     C_FECHA
       TIMR    #02 UP 0.1 ; TEMPO DE TRAVAMENTO.
       OUT     LED_T_TR ; LED TEMPO DE TRAVAMENTO.
       OUT     FIM_T_TR ; FIM TEMPO DE TRAVAMENTO.
;**** #   58 ----> & 02C6h
       LD      S081 ; SOL. FECHAMENTO DO MOLDE.
       ANDN    R.DES.RE ; CURSO LIGA REGENERATIVO.
       OR      L_REG_FC
       LD      I043
       ORN     B_ABRE ; BOTAO ABRE MOLDE.
       ANDN    A.AB.MOL ; SOL. ABRE MOLDE.
       ANDP
       OUT     L_REG_FC ; LIGA REGENERATIVO DE FECHAMENTO.
;**** #   59 ----> & 02D6h
       LD      AL_BICO ; AUX. ALARME BICO EXTRATOR/MACHO
       AND     FC_EXT.R ; SENSOR FIM DE CURSO EXTRATOR RECUADO
       ANDN    A_EXTRAT ; AUX. EXTRATOR
       ANDN    S087 ; AVANCO EXTRATOR
       ANDN    FC_PORTA ; FIM DE CURSO PORTA
       OUT     AL_PRT_A ; ALARME PORTA ABERTA.
;**** #   60 ----> & 02E2h
       LD      I043 ; SEMI-AUT.+AUT.
       ANDN    FC_PORTA ; PORTA.
       ANDN    FIM_T_TR ; FIM TEMPO DE TRAVAMENTO.
       LD      I0E7 ; LIGA CICLO MANUAL.
       AND     B_ABRE ; BOTAO ABRE MOLDE.
       ORP
       OR      F_T_RESF ; FIM TEMPO DE RESFRIAMENTO.
       LDN     S084 ; SOL. DE INJECAO.
       ANDN    C_FECHA ; INICIO DE FECHAMENTO.
       AND     ALARME ; ALARME.
       ORP
       LDN     S.LIG.MA ; SELETORA LIGA MACHO.
       ORN     A_RE_MAC ; RECUO DO MACHO.
       OR      FC_RE.MA ; SENSOR RECUO DO MACHO.
       LD      F_DOSAGE ; FIM DE DOSAGEM.
       ORN     S.DOSAG ; SELETORA DOSAGEM.
       ANDP
       ANDN    R.FC.ABR ; CURSO FIM DE ABERTURA.
       ANDN    I095 ; SOL. DESROSQUEADOR.
       ANDP
       OUT     A.AB.MOL ; SOL. ABRE MOLDE.
;**** #   61 ----> & 030Ch
       LD      A.AB.MOL ; SOL. ABRE MOLDE.
       AND     R.F.1VEL
       OR      A.1_2aAB
       LD      R.F.1VEL
       ORN     S081 ; SOL. FECHAMENTO DO MOLDE.
       ANDP
       OUT     A.1_2aAB ; MEM. FIM 1a ABERT/INICIO 2a ABERTURA.
;**** #   62 ----> & 031Ah
        LD     A.AB.MOL ; SOL. ABRE MOLDE.
        AND    R.F.2VEL
        OR     A.2_3aAB
        LD     R.F.2VEL
        ORN    S081 ; SOL. FECHAMENTO DO MOLDE.
        ANDP
        OUT    A.2_3aAB ; MEM. FIM 2a ABERT/INICIO 3a ABERTURA.
;**** #   63 ----> & 0328h
        LD     A.AB.MOL ; SOL ABRE MOLDE.
        ANDN   A.V.2a.A
        ANDN   A.V.3a.A
        ANDN   A.V.AM.A
        OUT    A.V.1a.A ; VELOCIDADE 1a ABERTURA.
;**** #   64 ----> & 0332h
        LD     A.AB.MOL ; SOL. ABRE MOLDE.
        AND    A.1_2aAB
        ANDN   A.V.3a.A
        ANDN   A.V.AM.A
        OUT    A.V.2a.A ; VELOCIDADE 2a ABERTURA.
;**** #   65 ----> & 033Ch
        LD     A.AB.MOL ; SOL. ABRE MOLDE.
        AND    A.2_3aAB
        ANDN   A.V.AM.A
        OUT    A.V.3a.A ; VELOCIDADE 3a ABERTURA.
;**** #   66 ----> & 0344h
        LD     A.AB.MOL ; SOL ABRE MOLDE.
        AND    R.AM.ABR
        OR     A.AM.AB
        ANDN   S081 ; SOL. FECHAMENTO DO MOLDE.
        OUT    A.AM.AB ; AUX. AMORT ABERTURA.
;**** #   67 ----> & 034Eh
        LD     A.AB.MOL ; SOL. ABRE MOLDE.
        AND    A.AM.AB
        OUT    A.V.AM.A ; VELOCIDADE AMORT. ABERTURA.
;**** #   68 ----> & 0354h
       LD      A.AB.MOL ; SOL. ABRE MOLDE.
       ANDN    R.AM.ABR
       OR      R_AB_RAP ; FIM RETARDO ABERTURA RAPIDA.
       ANDN    S081 ; SOL. FECHAMENTO DO MOLDE.
       OUT     R_AB_RAP ; FIM RETARDO ABERTURA RAPIDA.
;**** #   69 ----> & 035Eh
       LD      V_AB_RAP ; VEL.  ABERTURA 2
       ORN     R_AB_RAP ; FIM RETARDO ABERTURA RAPIDA.
       AND     A.AB.MOL ; SOL. ABRE MOLDE.
       OUT     A.P.A.AB ; PRESSAO AMORT. ABERTURA.
;**** #   70 ----> & 0366h
       LD      A.P.A.AB
       OUT     A.V.AM.A ; VELOCIDADE AMORT. ABERTURA.
;**** #   71 ----> & 036Ah
       LD      A.AB.MOL ;SOL. ABRE MOLDE.
       ANDN    V_AB_RAP ; VEL.  ABERTURA 2
       AND     R_AB_RAP ; FIM RETARDO ABERTURA RAPIDA.
       OUT     I0BC
;**** #   72 ----> & 0372h
       LD      A.AB.MOL ; AUX. ABERTURA.
       LD      S081 ; SOL. FECHA MOLDE.
       ANDN    L_REG_FC ; DESL. REGENERATIVO DE FECHAMENTO.
       ORP
       OUT     S080 ; SOL. REGENERATIVO DE FECHAMENTO.
;**** #   73 ----> & 037Ch
       LD      A.AB.MOL ; SOL. ABRE MOLDE.
       AND     R.AM.ABR
       OR      V_AB_RAP ; VEL.  ABERTURA 2
       ANDN    S081 ; SOL. FECHAMENTO DO MOLDE.
       OUT     V_AB_RAP ; VEL.  ABERTURA 2
;**** #   74 ----> & 0386h
       LD      ONALL
       BLK
         LD    R001  ;SEL #01 SELETORA EXTRATOR HIDRAULICO
         =     #001
       ENDB
       OUT     SL.EXT.T ; LIGADO
;**** #   75 ----> & 0392h
       LD      ONALL
       BLK
         LD    R002  ;SEL #02  SELETORA EXTRATOR PNEUMATICO.
         =     #001  ;POSICAO 1
       ENDB
       OUT     S.E.PNPM ; PLACA MOVEL.
;**** #   76 ----> & 039Eh
       LD      ONALL
       BLK
         LD    R002  ;SEL #02  SELETORA EXTRATOR PNEUMATICO.
         =     #002  ;POSICAO 2
       ENDB
       OUT     S.E.PNPF ; PLACA FIXA.
;**** #   77 ----> & 03AAh
       LD      ONALL
       BLK
         LD    R002  ;SEL #02  SELETORA EXTRATOR PNEUMATICO.
         =     #003  ;POSICAO 3
       ENDB
       OUT     S.E.PPMF ; PLACA MOVEL E FIXA.
;**** #   78 ----> & 03B6h
       LD      ONALL
       BLK
         LD    R008     ;SEL #08 SELETORA DESROSQUEADOR
         =     #001     ;POSICAO 1
       ENDB
       OUT     S.DSR.HD ; ELETRICO
;**** #   79 ----> & 03C2h
       LD      ONALL
       BLK
         LD    R008     ;SEL #08 SELETORA DESROSQUEADOR
         =     #002     ;POSICAO 2
       ENDB
       OUT     S.DESROS ; HIDRAULICO
;**** #   80 ----> & 03CEh
       LD      I0F0
       LD      R.E.PN.M ;CURSO DE EXTR. PNEUM.PLACA MOVEL.
       OR      A.E.PNPM
       ANDN    S081 ; SOL. FECHAMENTO DO MOLDE.
       AND     I043
       TIMR    #0C UP 0.1 ; TEMPO EXTRATOR PNEUM. PLACA MOVEL
       OUT     A.E.PNPM
       OUT     I0FF
;**** #   81 ----> & 03DEh
       LD      I0F0
       LD      R.E.PN.F
       OR      A.E.PNPF
       ANDN    S081 ; SOL. FECHAMENTO DO MOLDE.
       AND     I043
       TIMR    #0D UP 0.1 ; TEMPO EXTRATOR PNEUMATICO PLACA FIXA.
       OUT     A.E.PNPF
       OUT     I0FF
;**** #   82 ----> & 03EEh
       LD      I0E7 ; SEL. MANUAL.
       AND     R.E.PN.M ; CURSO DE EXTR.PNEUM.PLACA MOVEL.
       AND     B_EXT.PN ; BOTAO EXTRATOR PNEUMATICO.
       OR      A.E.PNPM ; TEMPO EXTR.PNEUM.PLACA MOVEL.
       LD      S.E.PNPM ;SELETORA EXTR. PNEUM.PLACA MOVEL.
       OR      S.E.PPMF ;SELETORA EXTR. PNEUM.PLACA MOVEL/FIXA.
       ANDP
       OUT     S089 ; SOLENOIDE EXTRATOR PNEUMATICO PLACA MOVEL.
;**** #   83 ----> & 03FEh
       LD      I0E7 ; SEL. MANUAL.
       AND     R.E.PN.F ; CURSO DE EXTR.PNEUM.PLACA FIXA.
       AND     B_EXT.PN ; BOTAO EXTRATOR PNEUM.
       OR      A.E.PNPF ; TEMPO EXTR. PNEUM. PLACA FIXA.
       LD      S.E.PNPF ; SELETORA EXTR. PNEUM.PLACA FIXA.
       OR      S.E.PPMF ; SELETORA EXTR. PNEUM.PLACA MOVEL/FIXA.
       ANDP
       OUT     S08E ;SOLENOIDE EXTR. PNEUM. PLACA FIXA.
;**** #   84 ----> & 040Eh
       LDN     R.FC.ABR ; CURSO FIM DE ABERTURA.
       AND     A.AB.MOL ; SINAL. ABERTURA DO MOLDE.
       LDN     FC_FECH. ; SENSOR FIM DE FECHAMENTO.
       AND     S081 ; SOL. FECHAMENTO
       ORP
       OUT     A.JUMPER ; AUX. JUMPER
;**** #   85 ----> & 041Ah
       LD      A.JUMPER
       JPC     FIM_PROG ; JUMPER FIM PROGRAMA.
;**** #   86 ----> & 0420h
       LD      I0E7
       AND     B_AV.BI ; BOTAO AVANCO DO BICO.
       OR      FIM_T_TR
       LD      SL.REC.T ; SELET RECALQUE P/ TEMPO
       ANDN    I0A5
       ORN     I0D5
       LD      S.DOSAG ; SELETORA DOSAGEM.
       ANDN    F_DOSAGE
       ORP
       ANDP
       ANDN    B_EMERG ; BOTAO EMERGENCIA.
       ANDN    S083 ; SOL. DESENCOSTA CABECOTE.
       OUT     S082 ; SOLENOIDE ENCOSTA CABECOTE.
;**** #   87 ----> & 043Ah
       LDN     S083 ; SOL. DESENCOSTA CABECOTE.
       ANDN    S084 ; SOL. DE INJECAO.
       ANDN    S085 ; SOL. DE DOSAGEM.
       AND     S082 ; SOL. ENCOSTA CABECOTE.
       ANDN    I0D3
       OUT     A.P.E.CA ; PRESSAO ENCOSTA CABECOTE.
;**** #   88 ----> & 0446h
       LD      A.P.E.CA
       ANDN    A.V.AM.C
       OUT     A.V.E.CA ; VELOCIDADE ENCOSTA CABECOTE.
;**** #   89 ----> & 044Ch
       LD      E003
       OR      M.AM.E.C
       AND     S082 ; SOL. ENCOSTA CABECOTE.
       OUT     M.AM.E.C ; MEM. AMORT. ENCOSTA CABECOTE.
;**** #   90 ----> & 0454h
       LD      S082 ; SOL. ENCOSTA CABECOTE.
       AND     M.AM.E.C
       OUT     A.V.AM.C ; VELOCIDADE AMORT. ENCOSTA CABECOTE.
;**** #   91 ----> & 045Ah
       LD      FC_ENC.C
       OR      I034
       AND     FIM_T_TR
       OUT     I034
;**** #   92 ----> & 0462h
       LD      I0F0
       LD      I034
       TIMR    #03 UP 0.1
       OUT     I0B8
       OUT     I0D3
;**** #   93 ----> & 046Ch
       LD      I0F0
       LD      S.PRE.DS
       AND     I0D3
       TIMR    #04 UP 0.1
       OUT     I0A9
       OUT     I0D4
;**** #   94 ----> & 0478h
       LD      I0F0
       LDN     S.PRE.DS
       OR      I0D4
       AND     I0D3
       TIMR    #05 UP 0.1
       OUT     I0C0
       OUT     I0D5
;**** #   95 ----> & 0486h
       LD      I0E7
       AND     B_INJEC. ; BOTAO DE INJECAO.
       OR      I0C0
       OR      I0C8
       OR      I0AA
       OR      I0CB
       LDN     S.LIG.MA
       OR      E007
       ANDP
       AND     I367
       RLD
       OUT     S084 ; SOL. DE INJECAO.
       AND     SL.REC.C ; SELET. RECALQUE P/ CURSO
       RLD
       RLD
       LDN     R_RECAL3 ; CURSO RECALQUE 3
       OR      I0B7
       ANDP
       OUT     I0B7
       LDN     R_RECAL2 ; CURSO RECALQUE 2.
       OR      I0AF
       ANDP
       ANDN    I0B7
       OUT     I0AF
       LDN     R_RECAL1 ; CURSO RECALQUE 1.
       OR      I03D
       ANDP
       ANDN    I0AF
       ANDN    I0B7
       OUT     I03D
;**** #   96 ----> & 04C0h
       LD      I0E7
       AND     B_DOSAG. ; BOTAO DE DOSAGEM.
       LD      I0D5
       ANDN    SL.REC.T ; SELET. RECALQUE P/ TEMPO
       OR      I0A5
       AND     I034
       ORP
       LD      S.DOSAG ; SELETORA DOSAGEM.
       OR      I0E7
       ANDP
       ANDN    R_FC.DOS
       OR      I0A9
       AND     I367
       RLD
       RLD
       RLD
       OUT     S085 ; SOL. DE DOSAGEM.
       LD      R_C.PRS2
       OR      C.PR3.DS
       ANDP
       OUT     C.PR3.DS ; 3a CONTRA PRESSAO DOSAGEM.
       LD      R_C.PRS1
       OR      C.PR2.DS
       ANDP
       ANDN    C.PR3.DS
       OUT     C.PR2.DS ; 2a CONTRA PRESSAO DOSAGEM.
       ANDN    C.PR3.DS
       ANDN    C.PR2.DS
       OUT     C.PR1.DS ; 1a CONTRA PRESSAO DOSAGEM.
;**** #   97 ----> & 04F6h
       LD      C.PR1.DS
       OUT     A.V.1aDS ; 1a VELOCIDADE DE DOSAGEM.
;**** #   98 ----> & 04FAh
       LD      C.PR2.DS
       OUT     A.V.2aDS ; 2a VELOCIDADE DE DOSAGEM.
;**** #   99 ----> & 04FEh
       LD      C.PR3.DS
       OUT     A.V.3aDS ; 3a VELOCIDADE DE DOSAGEM.
;**** #  100 ----> & 0502h
       LD      R_FC.DOS
       OR      F_DOSAGE
       ANDN    S084 ; SOL. DE INJECAO.
       AND     S.DOSAG ; SELETORA DOSAGEM.
       OUT     F_DOSAGE
;**** #  101 ----> & 050Ch
       LD      F_DOSAGE
       ORN     S.DOSAG ; SELETORA DOSAGEM.
       LD      I0D5
       ANDN    SL.REC.T ; SELET. RECALQUE P/ TEMPO.
       OR      I0A5
       ANDP
       AND     S.DESCOM
       LD      I0E7
       AND     B_DESC. ; BOTAO DE DESCOMPRESSAO.
       ORP
       AND     I367
       ANDN    R_FC.DES
       OUT     S086 ; SOL. DE DESCOMPRESSAO.
;**** #  102 ----> & 0526h
       LD      S086 ; SOL. DE DESCOMPRESSAO.
       OUT     PR.DESCO ; PRESSAO DESCOMPRESSAO.
;**** #  103 ----> & 052Ah
       LD      S086 ; SOL. DE DESCOMPRESSAO.
       OUT     A.V.DESC ; VELOCIDADE DESCOMPRESSAO.
;**** #  104 ----> & 052Eh
       LD      R_FC.DES
       ORN     S.DESCOM
       LD      F_DOSAGE
       ORN     S.DOSAG ; SELETORA DOSAGEM.
       ANDP
       LD      I0D5
       ANDN    SL.REC.T ; SELET. RECALQUE P/ TEMPO.
       OR      I0A5
       ANDP
       AND     S.DES.CA
       OUT     A.DES.CA
;**** #  105 ----> & 0544h
       LD      I0F0
       LD      A.DES.CA
       TIMR    #14 UP 0.1 ;TEMPO DE DESENCOSTA CABECOTE.
       OUT     D.DES.CA
       OUT     I0FF
;**** #  106 ----> & 054Eh
       LD      I0E7
       AND     B_REC.B. ; BOTAO RECUO DO BICO.
       OR      D.DES.CA
       ANDN    B_EMERG ; BOTAO EMERGENCIA.
       OUT     S083 ; SOL. DESENCOSTA CABECOTE.
;**** #  107 ----> & 0558h
       LD      S083 ; SOL. DESENCOSTA CABECOTE.
       OUT     A.P.D.CA ; PRESSAO DESENCOSTA CABECOTE.
;**** #  108 ----> & 055Ch
       LD      S083 ; SOL. DESENCOSTA CABECOTE.
       OUT     A.V.D.CA ; VELOCIDADE DESENCOSTA CABECOTE.
;**** #  109 ----> & 0560h
       LD      E003
       OR      M.AM.D.C
       AND     S083 ; SOL. DESENCOSTA CABECOTE.
       OUT     M.AM.D.C ; MEM. AMORT. DESENCOSTA CABECOTE.
;**** #  110 ----> & 0568h
       LD      A.P.M.CA ; PRESSAO ENCOSTA/DESENCOSTA PLACA.
       OUT     A.V.M.PL ; VELOCIDADE ENCOSTA/ DESENCOSTA PLACA.
;**** #  111 ----> & 056Ch
       LD      I0F0
       LD      I0D5
       AND     SL.REC.T ; SELET. RECALQUE P/ TEMPO.
       TIMR    #06 UP 0.1
       OUT     I0C8
       OUT     I0D6
;**** #  112 ----> & 0578h
       LD      I0F0
       LD      I0D6
       TIMR    #07 UP 0.1
       OUT     I0AA
       OUT     I0DE
;**** #  113 ----> & 0582h
       LD      I0F0
       LD      I0DE
       TIMR    #08 UP 0.1
       OUT     I0CB
       OUT     I0A5
;**** #  114 ----> & 058Ch
       LD      I0C8
       OR      I03D
       OUT     A.P.RC.1 ; PRESSAO RECALQUE 1.
;**** #  115 ----> & 0592h
       LD      I0AF
       OR      I0AA
       OUT     A.P.RC.2 ; PRESSAO RECALQUE 2.
;**** #  116 ----> & 0598h
       LD      I0CB
       OR      I0B7
       OUT     A.P.RC.3 ; PRESSAO RECALQUE 3.
;**** #  117 ----> & 059Eh
       LD      S084 ; SOL. DE INJECAO.
       ANDN    A.P.RC.1
       ANDN    A.P.RC.2
       ANDN    A.P.RC.3
       OUT     A.P.INJ ; PRESSAO DE INJECAO.
;**** #  118 ----> & 05A8h
       LD      A.P.INJ ; PRESSAO DE INJECAO.
       ANDN    AV.2a.I ; 2a VELOC. DE INJECAO.
       ANDN    AV.3a.I ; 3a VELOC. DE INJECAO.
       ANDN    AV.4a.I ; 4a VELOC. DE INJECAO.
       ANDN    AV.5a.I ; 5a VELOC. DE INJECAO.
       ANDN    AV.6a.I ; 6a VELOC. DE INJECAO.
       ANDN    AV.7a.I ; 7a VELOC. DE INJECAO.
       ANDN    AV.8a.I ; 8a VELOC. DE INJECAO.
       ANDN    AV.9a.I ; 9a VELOC. DE INJECAO.
       ANDN    AV.10a.I ; 10a VELOC. DE INJECAO.
       OUT     AV.1a.I ; 1a VELOC. DE INJECAO.
;**** #  119 ----> & 05BEh
       LD      A.P.INJ ; PRESSAO DE INJECAO.
       AND     A.1a.V.I ; FIM 1a VELOC. DE INJECAO.
       ANDN    AV.3a.I ; 3a VELOC. DE INJECAO.
       ANDN    AV.4a.I ; 4a VELOC. DE INJECAO.
       ANDN    AV.5a.I ; 5a VELOC. DE INJECAO.
       ANDN    AV.6a.I ; 6a VELOC. DE INJECAO.
       ANDN    AV.7a.I ; 7a VELOC. DE INJECAO.
       ANDN    AV.8a.I ; 8a VELOC. DE INJECAO.
       ANDN    AV.9a.I ; 9a VELOC. DE INJECAO.
       ANDN    AV.10a.I ; 10a VELOC. DE INJECAO.
       OUT     AV.2a.I ; 2a VELOC. DE INJECAO.;
;**** #  120 ----> & 05D4h
       LD      A.P.INJ ; PRESSAO DE INJECAO.
       AND     A.2a.V.I ; FIM 2a VELOC. DE INJECAO.
       ANDN    AV.4a.I ; 4a VELOC. DE INJECAO.
       ANDN    AV.5a.I ; 5a VELOC. DE INJECAO.
       ANDN    AV.6a.I ; 6a VELOC. DE INJECAO.
       ANDN    AV.7a.I ; 7a VELOC. DE INJECAO.
       ANDN    AV.8a.I ; 8a VELOC. DE INJECAO.
       ANDN    AV.9a.I ; 9a VELOC. DE INJECAO.
       ANDN    AV.10a.I ; 10a VELOC. DE INJECAO.
       OUT     AV.3a.I ; 3a VELOC. DE INJECAO.
;**** #  121 ----> & 05E8h
       LD      A.P.INJ ; PRESSAO DE INJECAO.
       AND     A.3a.V.I ; FIM 3a VELOC. DE INJECAO.
       ANDN    AV.5a.I ; 5a VELOC. DE INJECAO.
       ANDN    AV.6a.I ; 6a VELOC. DE INJECAO.
       ANDN    AV.7a.I ; 7a VELOC. DE INJECAO.
       ANDN    AV.8a.I ; 8a VELOC. DE INJECAO.
       ANDN    AV.9a.I ; 9a VELOC. DE INJECAO.
       ANDN    AV.10a.I ; 10a VELOC. DE INJECAO.
       OUT     AV.4a.I ; 4a VELOC. DE INJECAO.
;**** #  122 ----> & 05FAh
       LD      A.P.INJ ; PRESSAO DE INJECAO.
       AND     A.4a.V.I ; FIM 4a VELOC. DE INJECAO.
       ANDN    AV.6a.I ; 6a VELOC. DE INJECAO.
       ANDN    AV.7a.I ; 7a VELOC. DE INJECAO.
       ANDN    AV.8a.I ; 8a VELOC. DE INJECAO.
       ANDN    AV.9a.I ; 9a VELOC. DE INJECAO.
       ANDN    AV.10a.I ; 10a VELOC. DE INJECAO.
       OUT     AV.5a.I ; 5a VELOC. DE INJECAO.
;**** #  123 ----> & 060Ah
       LD      A.P.INJ ; PRESSAO DE INJECAO.
       AND     A.5a.V.I ; FIM 5a VELOC. DE INJECAO.
       ANDN    AV.7a.I ; 7a VELOC. DE INJECAO.
       ANDN    AV.8a.I ; 8a VELOC. DE INJECAO.
       ANDN    AV.9a.I ; 9a VELOC. DE INJECAO.
       ANDN    AV.10a.I ; 10a VELOC. DE INJECAO.
       OUT     AV.6a.I ; 6a VELOC. DE INJECAO.
;**** #  124 ----> & 0618h
       LD      A.P.INJ ; PRESSAO DE INJECAO.
       AND     A.6a.V.I ; FIM 6a VELOC. DE INJECAO.
       ANDN    AV.8a.I ; 8a VELOC. DE INJECAO.
       ANDN    AV.9a.I ; 9a VELOC. DE INJECAO.
       ANDN    AV.10a.I ; 10a VELOC. DE INJECAO.
       OUT     AV.7a.I ; 7a VELOC. DE INJECAO.
;**** #  125 ----> & 0624h
       LD      A.P.INJ ; PRESSAO DE INJECAO.
       AND     A.7a.V.I ; FIM 7a VELOC. DE INJECAO.
       ANDN    AV.9a.I ; 9a VELOC. DE INJECAO.
       ANDN    AV.10a.I ; 10a VELOC. DE INJECAO.
       OUT     AV.8a.I ; 8a VELOC. DE INJECAO.
;**** #  126 ----> & 062Eh
       LD      A.P.INJ ; PRESSAO DE INJECAO.
       AND     A.8a.V.I ; FIM 8a VELOC. DE INJECAO.
       ANDN    AV.10a.I ; 10a VELOC. DE INJECAO.
       OUT     AV.9a.I ; 9a VELOC. DE INJECAO.
;**** #  127 ----> & 0636h
       LD      A.P.INJ ; PRESSAO DE INJECAO.
       AND     A.9a.V.I ; FIM 9a VELOC. DE INJECAO.
       OUT     AV.10a.I ; 10a VELOC. DE INJECAO.
;**** #  128 ----> & 063Ch
       LD      A.P.INJ ; PRESSAO DE INJECAO.
       ANDN    AV.2a.I ; 2a VELOC. DE INJECAO.
       ANDN    AV.3a.I ; 3a VELOC. DE INJECAO.
       ANDN    AV.4a.I ; 4a VELOC. DE INJECAO.
       ANDN    AV.5a.I ; 5a VELOC. DE INJECAO.
       ANDN    AV.6a.I ; 6a VELOC. DE INJECAO.
       ANDN    AV.7a.I ; 7a VELOC. DE INJECAO.
       ANDN    AV.8a.I ; 8a VELOC. DE INJECAO.
       ANDN    AV.9a.I ; 9a VELOC. DE INJECAO.
       ANDN    AV.10a.I ; 10a VELOC. DE INJECAO.
       OUT     AV.1a.I ; 1a VELOC. DE INJECAO.
;**** #  129 ----> & 0652h
       LDN     R_INJ.1 ; CURSO FIM 1a VELOC. DE INJECAO.
       OR      A.1a.V.I
       AND     AV.10a.I ; SELETORA 10 VELOCIDADES DE INJECAO.
       AND     A.P.INJ
       OUT     A.1a.V.I ; MEM. FIM 1a VELOC. DE INJECAO.
;**** #  130 ----> & 065Ch
       LDN     R_INJ.2 ; CURSO FIM 2a VELOC. DE INJECAO.
       OR      A.2a.V.I
       AND     AV.10a.I
       AND     A.P.INJ
       OUT     A.2a.V.I ; MEM. FIM 2a VELOC. DE INJECAO.
;**** #  131 ----> & 0666h
       LDN     R_INJ.3 ; CURSO FIM 3a VELOC. DE INJECAO.
       OR      A.3a.V.I
       AND     AV.10a.I
       AND     A.P.INJ
       OUT     A.3a.V.I ; MEM. FIM 3a VELOC. DE INJECAO.
;**** #  132 ----> & 0670h
       LDN     R_INJ.4 ; CURSO FIM 4a VELOC. DE INJECAO.
       OR      A.4a.V.I
       AND     AV.10a.I
       AND     A.P.INJ
       OUT     A.4a.V.I ; MEM. FIM 4a VELOC. DE INJECAO.
;**** #  133 ----> & 067Ah
       LDN     R_INJ.5 ; CURSO FIM 5a VELOC. DE INJECAO.
       OR      A.5a.V.I
       AND     AV.10a.I
       AND     A.P.INJ
       OUT     A.5a.V.I ; MEM. FIM 5a VELOC. DE INJECAO.
;**** #  134 ----> & 0684h
       LDN     R_INJ.6 ; CURSO FIM 6a VELOC. DE INJECAO.
       OR      A.6a.V.I
       AND     AV.10a.I
       AND     A.P.INJ
       OUT     A.6a.V.I ; MEM. FIM 6a VELOC. DE INJECAO.
;**** #  135 ----> & 068Eh
       LDN     R_INJ.7 ; CURSO FIM 7a VELOC. DE INJECAO.
       OR      A.7a.V.I
       AND     AV.10a.I
       AND     A.P.INJ
       OUT     A.7a.V.I ; MEM. FIM 7a VELOC. DE INJECAO.
;**** #  136 ----> & 0698h
       LDN     R_INJ.8 ; CURSO FIM 8a VELOC. DE INJECAO.
       OR      A.8a.V.I
       AND     AV.10a.I
       AND     A.P.INJ
       OUT     A.8a.V.I ; MEM. FIM 8a VELOC. DE INJECAO.
;**** #  137 ----> & 06A2h
       LDN     R_INJ.9 ; CURSO FIM 9a VELOC. DE INJECAO.
       OR      A.9a.V.I
       AND     AV.10a.I
       AND     A.P.INJ
       OUT     A.9a.V.I ; MEM. FIM 9a VELOC. DE INJECAO.
;**** #  138 ----> & 06ACh
       LD      I0F0
       LDN     SL.REC.T ; SELET. RECALQUE P/ TEMPO.
       AND     I0D5
       OR      I0A5
       OR      F_T_RESF
       ANDN    R.FC.ABR ; CURSO FIM DE ABERTURA.
       AND     I043
       ANDN    ALARME
       TIMR    #09 UP 0.1
       OUT     I0A1
       OUT     F_T_RESF
;**** #  139 ----> & 06C2h
       LD      R.F.AV.E
       OR      M_EXT_AV
       AND     SL.EXT.T ; SELET. EXTRATOR.
       ANDN    I0DC ; FIM RETORNO EXTRATOR REPETITIVO
       AND     A_EXTRAT
       OUT     M_EXT_AV ; MEM. EXTRATOR AVANCADO.
;**** #  140 ----> & 06CEh
       LD      I0F0
       LD      M_EXT_AV
       TIMR    #0A UP 0.1 ; TEMPO EXTRATOR AVANCADO.
       OUT     I0CD
       OUT     F_T_EX_A ; FIM TEMPO EXTRATOR AVANCADO.
;**** #  141 ----> & 06D8h
       LD      R.FC.ABR ; CURSO FIM DE ABERTURA.
       OR      I0E2
       ANDN    S081 ; SOL. FECHAMENTO DO MOLDE.
       OUT     I0E2
;**** #  142 ----> & 06E0h
       LD      F_T_EX_A
       LDN     I0E9
       ANDN    FC_PORTA
       OR      I0E9
       OR      S084 ; SOL. DE INJECAO.
       LDN     FC_PORTA
       OR      I043
       LDN     S.LIG.MA
       OR      FC_RE.MA
       ANDP
       AND     SL.EXT.T ; SELET. EXTRAT.
       AND     I043
       AND     I0E2
       ANDP
       ANDP
       RLD
       BLK
         LD    R00B   ;CNTD #0B CONTADOR DE EXTRACOES.
         >=    PR_EXTR
       ENDB
       OUT     I0DD ; FIM CONTADOR DE EXTRACOES.
       ANDN    I0DD
       OUT     I0B9 ;DURANTE CONTAGEM DE EXTRACOES
;**** #  143 ----> & 070Ch
       LD      I0E7
       AND     B_EXT.HD ; BOTAO EXTRATOR HIDRAULICO.
       ANDN    FC_PORTA
       OR      I0B9
       AND     SL.EXT.T ; SELET. EXTRAT. HIDRAUL.
       AND     R.I.EX.H
       OUT     A_EXTRAT
;**** #  144 ----> & 071Ah
       LDN     S.DSR.HD ; SELET. DESROSQ. ELETRICO.
       ANDN    S.DESROS ; SELET. DESROSQ. HIDRAUL.
       ORN     M_L_DESR ; MEM. LIGA DESROSQ.
       OR      I0DF ; FIM TEMPO DESROSQUEADOR
       LDN     FC_PORTA ; PORTA
       OR      I043 ; SEMI-AUTOMATICO + AUTOMATICO.
       ANDP
       LDN     S.LIG.MA ; SELETORA LIGA MACHO.
       OR      FC_RE.MA ; SENSOR F. RECUO DO MACHO.
       ANDP
       ANDN    F_T_EX_A ;
       ANDN    I0DD
       AND     A_EXTRAT
       RLD
       OUT     AUX.EXTR ; AUX. EXTRACAO
       ANDN    R.F.AV.E
       OUT     S087 ; SOL. AVANCO EXTRATOR.
;**** #  145 ----> & 073Ch
       LD      I0F0
       LD      I0EC
       OR      S087 ; SOL. AVANCO EXTRATOR.
       TIMR    #1C UP 0.1
       OUT     I0FF
       OUT     I0EC ;RETARDO PRES./VEL.EXTRACAO.
;**** #  146 ----> & 0748h
       LD      I0EC ;
       AND     I043
       OR      I0E7
       AND     S087 ; SOL. AVANCO EXTRATOR.
       OUT     A.P.A.EH ; PRESSAO AVANCO EXTRATOR HIDRAULICO.
;**** #  147 ----> & 0752h
       LD      A.P.A.EH
       ANDN    A.VAM.EH
       OUT     A.VAV.EH ; VELOCIDADE AVANCO EXTRATOR HIDRAULICO
;**** #  148 ----> & 0758h
       LD      A.AM.EXT ;MEMORIA DE AMORTECIMENTO DO EXTRATOR.
       OUT     A.VAM.EH ; VELOCIDADE AMORTECIMENTO DE EXTRACAO.
;**** #  149 ----> & 075Ch
       LD      R.AM.AV
       OR      A.AM.EXT
       LD      I0EC
       AND     I043
       OR      I0E7
       ANDP
       AND     S087 ; SOL. AVANCO EXTRATOR.
       OUT     A.AM.EXT
;**** #  150 ----> & 076Ch
       LDN     R.RET.RE
       OR      FC_EXT.R
       AND     F_T_EX_A
       OR      I0DC
       AND     A_EXTRAT
       ANDN    R.F.AV.E
       OUT     I0DC ; FIM RETORNO EXTRATOR REPETITIVO.
;**** #  151 ----> & 077Ah
       LD      R.FC.ABR ; CURSO FIM DE ABERTURA.
       OR      I047
       AND     I043
       OUT     I047
;**** #  152 ----> & 0782h
       LD      ONALL
       BLK
         LD    R000    ;SEL #00 SELETORA RECALQUE DE INJECAO
         =     #001    ;POSICAO 1
       ENDB
       OUT     SL.REC.C ; POR CURSO
;**** #  153 ----> & 078Eh
       LD      ONALL
       BLK
         LD    R000    ;SEL #00 SELETORA RECALQUE DE INJECAO
         =     #002    ;POSICAO 2
       ENDB
       OUT     SL.REC.T ; POR TEMPO
;**** #  154 ----> & 079Ah
       LD      ONALL
       BLK
         LD    R003     ;SEL #03 SELETORA DESENC. CABECOTE
         =     #001
       ENDB
       OUT     S.DES.CA ; LIGADO
;**** #  155 ----> & 07A6h
       LD      ONALL
       BLK
         LD    R004     ;SEL #04 SELETORA DOSAGEM
         =     #001
       ENDB
       OUT     S.DOSAG ; LIGADO
;**** #  156 ----> & 07B2h
       LD      ONALL
       BLK
         LD    R004    ;SEL #05 SELETORA DESCOMPRESSAO
         =     #001
       ENDB
       OUT     S.DESCOM ; LIGADO
;**** #  157 ----> & 07BEh
       LD      ONALL
       BLK
         LD    R006     ;SEL #06 SELETORA PRE-DOSAGEM
         =     #001
       ENDB
       OUT     S.PRE.DS ; LIGADO
;**** #  158 ----> & 07CAh
       LD      ONALL
       BLK
         LD    R007     ;SEL #07 SELETORA PRE-DETERMINADOR DE CICLOS
         =     #001
       ENDB
       OUT     S.PRE.CI ; LIGADO
;**** #  159 ----> & 07D6h
       LD      ONALL
       BLK
         LD    R009     ;SEL #09 SELETORA AQUECIMENTO
         =     #001
       ENDB
       OUT     S.AQUEC ; LIGADO
;**** #  160 ----> & 07E2h
       LD      ONALL
       BLK
         LD    R00A    ;SEL #0A SELETORA VELOCIDADES DE INJECAO.
         =     #001
       ENDB
       OUT     AV.10a.I ; 10 VELOCIDADES.
;**** #  161 ----> & 07EEh
       LD      S085 ; SOL. DE DOSAGEM.
       OR      S086 ; SOL. DE DESCOMPRESSAO.
       OUT     S08F ; SOL S4.
;**** #  162 ----> & 07F4h
       LD      F_T_RESF ;FIM DE TEMPO DE RESFRIAMENTO.
       LDN     B_INJEC.
       ORN     B_DOSAG. ; BOTAO DE DOSAGEM.
       ORN     B_DESC. ; BOTAO DE DESCOMPRESSAO.
       ANDN    I0E4
       TIMR    #12 UP 0.1  ; PRE-DETERMINADOR DE LUBRIFICACAO.
       OUT     I0FF
       OUT     I0E3
;**** #  163 ----> & 0804h
       LD      I0F0
       LD      I0E3
       ANDN    I0E0
       TIMR    #16 UP 0.1
       OUT     I0FF
       OUT     I0E6
;**** #  164 ----> & 0810h
       LD      I0E6
       LD      I0E3
       TIMR    #13 UP 0.1
       OUT     A.LUBRIF
       OUT     I0FF
;**** #  165 ----> & 081Ah
       LD      FLIFLOPC ;AUX. FLIP-FLOP
       OR      FLIFLOPA ;AUX. FLIP-FLOP
       AND     B_LUBRIF ;BOTAO DE LUBRIFICACAO.
       OUT     FLIFLOPA ;AUX. FLIP-FLOP.
;**** #  166 ----> & 0822h
       LD      B_LUBRIF ;BOTAO DE LUBRIFICACAO.
       OR      FLIFLOPB ;FLIP-FLOP.
       ANDN    FLIFLOPA ;AUX. FLIP-FLOP
       OUT     FLIFLOPB ;FLIP-FLOP.
;**** #  167 ----> & 082Ah
       LD      FLIFLOPB ;FLIP-FLOP
       ANDN    B_LUBRIF ;BOTAO DE LUBRIFICACAO.
       OUT     FLIFLOPC ;AUX. FLIP-FLOP
;**** #  168 ----> & 0830h
       LD      FLIFLOPB ; BOTAO DE LUBRIFICACAO.
       OR      A.LUBRIF ; AUX. LUBRIFICACAO.
       OUT     S096 ; SOL. LUBRIFICACAO.
;**** #  169 ----> & 0836h
       LD      I0E6
       LD      I0E3
       TIMR    #1E UP 0.1 ; TEMPO SUPERVISAO DE LUBRIFICACAO (FIXO 0018).
       OUT     I0FF
       OUT     I0E4 ; APOS TEMPO SUPERVISAO DE LUBRIFICACAO.
;**** #  170 ----> & 0840h
       LD      I0E6
       OUT     I0E0
;**** #  171 ----> & 0844h
       LD      B_INJEC. ; BOTAO DE INJECAO.
       AND     B_DOSAG. ; BOTAO DE DOSAGEM.
       AND     B_DESC. ; BOTAO DE DESCOMPRESSAO.
       OR      I0E3
       RLD
       ANDN    I05C
       OUT     I0AB
       OUT     I05C
;**** #  172 ----> & 0854h
       LD      REED_LB1
       MONU    TRG_LUB1 ; TRIGGER LUBRIFICACAO 1.
;**** #  173 ----> & 0858h
       LD      TRG_LUB1
       ANDN    I0E4
       OR      I0AE
       ANDN    I0AB
       OUT     I0AE
;**** #  174 ----> & 0862h
       LD      I0E4
       OR      AL_LUBR1
       ANDN    I0AE
       ANDN    I0AB
       OUT     AL_LUBR1
;**** #  175 ----> & 086Ch
       LD      REED_LB2
       MONU    TRG_LUB2 ; TRIGGER LUBRIFICACAO 2.
;**** #  176 ----> & 0870h
       LD      TRG_LUB2
       ANDN    I0E4
       OR      I0B5
       ANDN    I0AB
       OUT     I0B5
;**** #  177 ----> & 087Ah
       LD      I0E4
       OR      AL_LUBR2
       ANDN    I0B5
       ANDN    I0AB
       OUT     AL_LUBR2
;**** #  178 ----> & 0884h
       LD      REED_LB3
       MONU    TRG_LUB3 ; TRIGGER LUBRIFICACAO 3.
;**** #  179 ----> & 0888h
       LD      TRG_LUB3
       ANDN    I0E4
       OR      I0C9
       ANDN    I0AB
       OUT     I0C9
;**** #  180 ----> & 0892h
       LD      I0E4
       OR      AL_LUBR3
       ANDN    I0C9
       ANDN    I0AB
       OUT     AL_LUBR3
;**** #  181 ----> & 089Ch
       LD      REED_LB4
       MONU    TRG_LUB4 ; TRIGGER LUBRIFICACAO 4.
;**** #  182 ----> & 08A0h
       LD      TRG_LUB4
       ANDN    I0E4
       OR      I04F
       ANDN    I0AB
       OUT     I04F
;**** #  183 ----> & 08AAh
       LD      I0E4
       OR      AL_LUBR4
       ANDN    I04F
       ANDN    I0AB
       OUT     AL_LUBR4
;**** #  184 ----> & 08B4h
       LD      REED_LB5
       MONU    A.TR.LUB ; TRIGGER LUBRIFICACAO 5.
;**** #  185 ----> & 08B8h
       LD      A.TR.LUB
       ANDN    I0E4
       OR      I0F2
       ANDN    I0AB
       OUT     I0F2
;**** #  186 ----> & 08C2h
       LD      I0E4
       OR      I0F3
       ANDN    I0F2
       ANDN    I0AB
       OUT     I0F3
;**** #  187 ----> & 08CCh
       LD      F_T_RESF
       LD      S.PRE.CI
       TIMR    #10 UP 0.1    ; PRE-DETERMINADOR DE CICLOS.
       OUT     I0FF
       OUT     I0E1
;**** #  188 ----> & 08D6h
       LD      I0F0
       LD      R.FC.ABR ; CURSO FIM DE ABERTURA.
       ANDN    S087 ; SOL. AVANCO EXTRATOR.
       ANDN    FC_EXT.R
       TIMR    #1A UP 0.1
       OUT     I0FF
       OUT     AL_TRAVA
;**** #  189 ----> & 08E4h
       LD      I0F0
       LD      S082 ; SOL. ENCOSTA CABECOTE.
       ANDN    FC_ENC.C
       TIMR    #18 UP 0.1
       OUT     I0FF
       OUT     AL_EX_RE
;**** #  190 ----> & 08F0h
       LD      F_T_RESF
       OR      I05F
       ANDN    F_DOSAGE
       AND     S.DOSAG ; SELETORA DOSAGEM.
       OUT     I05F
;**** #  191 ----> & 08FAh
       LD      FC_PORTA
       ANDN    A_EXTRAT
       ANDN    S087 ; SOL. AVANCO EXTRATOR.
       ANDN    FC_EXT.R
       OUT     I0BD
;**** #  192 ----> & 0904h
       LD      AL_BICO ; AUX. ALARME BICO EXTRATOR/MACHO
       AND     FC_EXT.R ; SENSOR FIM DE CURSO EXTRATOR RECUO
       AND     FC_PORTA ; FIM DE CURSO PORTA
       ANDN    A_EXTRAT ; AUX. EXTRATOR
       ANDN    S087 ; SOL. AVANCO EXTRATOR.
       AND     A_RE_MAC
       OUT     I0D7
;**** #  193 ----> & 0912h
       LD      I0E7
       AND     B_FECHA ; BOTAO DE FECHAMENTO.
       OR      C_FECHA
       LDN     I040
       OR      E007
       OR      S.LIG.MA
       ANDP
       ANDN    I095
       OUT     AL_BICO
;**** #  194 ----> & 0924h
       LD      R.F.AV.E
       OR      I03F
       AND     I043
       AND     I0E9
       ANDN    S081 ; SOL. FECHAMENTO DO MOLDE.
       OUT     I03F
;**** #  195 ----> & 0930h
       LD      I0F0
       LD      I03F
       ORN     SL.EXT.T ; SELET. EXTRAT. HIDRAUL.
       AND     I043
       AND     I0E9
       AND     R.FC.ABR ;CURSO FIM DE ABERTURA.
       ANDN    ALARME
       AND     FC_EXT.R
       ANDN    I0B9
       TIMR    #00 UP 0.1
       OUT     I0A0
       OUT     I0D0
;**** #  196 ----> & 0948h
       LD      E003 ;BOTAO ENCOSTA PLACA.
       OUT     S09E ;SOLENOIDE ENCOSTA PLACA.
;**** #  197 ----> & 094Ch
       LD      E005 ;BOTAO DESENCOSTA PLACA.
       OUT     S09F ;SOLENOIDE DESENCOSTA PLACA.
;
;
Inicializacao:
;**** #  198 ----> & 0950h
       LD      ONALL
       BLK
         LD    #0000
         ->    RFUNC
       ENDB
       OUT     AUX
;**** #  199 ----> & 095Ch
       RET
;
Verif_Telas:
;**** #  200 ----> & 095Eh
       RET
;
FIM_PROG:
;**** #  201 ----> & 0960h
       END
;
