NED = 1
NSD = 2
NTIM = 8
RTIM = 0300
;
DEF
   EMERG = E00
   BOTAO = E01
   SENSOR = E03
   BOMBA  = S80
   MOTOR  = S99
   VELOCID =  R100
ENDF
;**** #    1 ----> & 0000h
LD   E000
JPC  Teste_Jmp
;**** #    2 ----> & 0006h
JMP  Fim_Prog
;**** #    3 ----> & 0024h
Teste_Jmp:
;**** #    3 ----> & 000Ah
ld  e00
and s80
out s99
Fim_Prog:
;**** #    4 ----> & 0010h
END
